<?xml version="1.0" encoding="utf-8"?>
<!-- Generator: Adobe Illustrator 22.0.0, SVG Export Plug-In . SVG Version: 6.00 Build 0)  -->
<svg version="1.1" id="Capa_1" xmlns="http://www.w3.org/2000/svg" xmlns:xlink="http://www.w3.org/1999/xlink" x="0px" y="0px"
	 viewBox="0 0 512 512" style="enable-background:new 0 0 512 512;" xml:space="preserve">
<style type="text/css">
	.st0{fill:#FFFFFF;}
</style>
<path class="st0" d="M320,448H64V64h256v32h64V0H0v512h384v-96h-64L320,448L320,448z"/>
<path class="st0" d="M393.4,137.4l-45.2,45.2l41.4,41.4H224v64h165.5l-41.4,41.4l45.2,45.2L512,256L393.4,137.4z"/>
</svg>
